-------------------------------------------------------------------------------
Test set: org.ubs.interview.sudoku.validator.parser.SudokuValidatorTest
-------------------------------------------------------------------------------
Tests run: 6, Failures: 0, Errors: 0, Skipped: 0, Time elapsed: 0.188 s - in org.ubs.interview.sudoku.validator.parser.SudokuValidatorTest
